{
  "project_info": {
    "project_number": "994549929333",
    "project_id": "firebase-indus"
  },
  "client": [
    {
      "client_info": {
        "mobilesdk_app_id": "1:994549929333:android:2b86b1148ebf8dfc",
        "android_client_info": {
          "package_name": "com.example.simulterra2.indus"
        }
      },
      "oauth_client": [],
      "api_key": [
        {
          "current_key": "AIzaSyCjMVpha6m0EFzcXAycAHxIDUFKlQRtaX0"
        }
      ],
      "services": {
        "analytics_service": {
          "status": 1
        },
        "appinvite_service": {
          "status": 1,
          "other_platform_oauth_client": []
        },
        "ads_service": {
          "status": 1
        }
      }
    }
  ],
  "configuration_version": "1"
}